\relax 
\catcode `:\active 
\catcode `;\active 
\catcode `!\active 
\catcode `?\active 
\@writefile{toc}{\cftpagenumbersoff  {chapter}}
\@writefile{toc}{\cftpagenumbersoff  {part}}
\select@language{french}
\@writefile{toc}{\select@language{french}}
\@writefile{lof}{\select@language{french}}
\@writefile{lot}{\select@language{french}}
\@writefile{toc}{\contentsline {section}{\numberline {1.}Objet}{2}}
\@writefile{toc}{\contentsline {section}{\numberline {2.}Livrable}{2}}
\@writefile{toc}{\contentsline {section}{\numberline {3.}Configuration minimale requise}{2}}
\@writefile{toc}{\contentsline {section}{\numberline {4.}Configuration recommand\'ee}{2}}
\@writefile{toc}{\contentsline {section}{\numberline {5.}Proc\'edure d'installation}{3}}
\@writefile{toc}{\contentsline {section}{\numberline {6.}D\'esinstallation}{6}}
