\cftpagenumbersoff {chapter}
\cftpagenumbersoff {part}
\select@language {french}
\contentsline {section}{\numberline {1.}Objet}{2}
\contentsline {section}{\numberline {2.}Livrable}{2}
\contentsline {section}{\numberline {3.}Configuration minimale requise}{2}
\contentsline {section}{\numberline {4.}Configuration recommand\'ee}{2}
\contentsline {section}{\numberline {5.}Proc\'edure d'installation}{3}
\contentsline {section}{\numberline {6.}D\'esinstallation}{6}
