\select@language {french}
\contentsline {chapter}{\numberline {1}Histoire}{2}
\contentsline {chapter}{\numberline {2}Les menus}{3}
\contentsline {section}{\numberline {2.1}Jouer}{3}
\contentsline {section}{\numberline {2.2}R\'eglages}{3}
\contentsline {chapter}{\numberline {3}Les commandes}{4}
