\cftpagenumbersoff {chapter}
\cftpagenumbersoff {part}
\select@language {french}
\contentsline {part}{\relax \fontsize {14.4}{18}\selectfont \bf Introduction}{1}
\contentsline {part}{\relax \fontsize {14.4}{18}\selectfont \bf Pr\'esentation g\'en\'erale du projet}{1}
\contentsline {chapter}{Avancement du projet}{1}
\contentsline {chapter}{Avancement du site web}{1}
\contentsline {chapter}{Probl\`emes majeurs lors de la r\'ealisation}{1}
\contentsline {part}{\relax \fontsize {14.4}{18}\selectfont \bf Pr\'esentation individuelle}{1}
\contentsline {chapter}{T\^aches accomplies}{1}
\contentsline {chapter}{T\^aches \`a r\'ealiser}{1}
\contentsline {part}{\relax \fontsize {14.4}{18}\selectfont \bf Conclusion}{1}
\contentsline {chapter}{Rappel sur la soutenance}{1}
\contentsline {chapter}{Rappel sur le travail \`a r\'ealiser}{1}
